/* XPM */
const static char * AIcon64[] = {
"64 64 228 2",
"  	c None",
". 	c #1D242D",
"+ 	c #1C232C",
"@ 	c #1A212B",
"# 	c #19212A",
"$ 	c #192029",
"% 	c #19202A",
"& 	c #1A212A",
"* 	c #141C25",
"= 	c #131A24",
"- 	c #202730",
"; 	c #272E37",
"> 	c #2B313A",
", 	c #282F37",
"' 	c #222931",
") 	c #151C25",
"! 	c #131B24",
"~ 	c #4A5158",
"{ 	c #A0A4A7",
"] 	c #CFD0D2",
"^ 	c #E6E7E8",
"/ 	c #F1F2F2",
"( 	c #E9EAEB",
"_ 	c #D4D5D7",
": 	c #A8ABAE",
"< 	c #575D63",
"[ 	c #151D26",
"} 	c #1B222B",
"| 	c #141B25",
"1 	c #777B81",
"2 	c #F6F7F7",
"3 	c #FFFFFF",
"4 	c #898C91",
"5 	c #161D26",
"6 	c #4C5158",
"7 	c #FBFBFC",
"8 	c #FDFDFD",
"9 	c #F4F4F5",
"0 	c #F1F1F2",
"a 	c #565B62",
"b 	c #141B24",
"c 	c #A3A5AA",
"d 	c #E1E1E3",
"e 	c #898D92",
"f 	c #4E535A",
"g 	c #30373E",
"h 	c #252C35",
"i 	c #272D36",
"j 	c #AAADB0",
"k 	c #151C26",
"l 	c #222831",
"m 	c #D3D5D7",
"n 	c #B0B2B5",
"o 	c #252C34",
"p 	c #030A15",
"q 	c #232A33",
"r 	c #272E36",
"s 	c #D8D9DB",
"t 	c #232A32",
"u 	c #C6C8CA",
"v 	c #0F1720",
"w 	c #323940",
"x 	c #929599",
"y 	c #CACCCE",
"z 	c #E9E9EA",
"A 	c #F6F6F7",
"B 	c #293038",
"C 	c #2D343C",
"D 	c #F3F3F4",
"E 	c #52575F",
"F 	c #5F646A",
"G 	c #ECECED",
"H 	c #52575E",
"I 	c #2F353D",
"J 	c #DADCDD",
"K 	c #6D7177",
"L 	c #FAFAFA",
"M 	c #F9F9F9",
"N 	c #F2F2F3",
"O 	c #EEEFEF",
"P 	c #EDEEEF",
"Q 	c #EFEFF0",
"R 	c #EEEEEF",
"S 	c #2D333C",
"T 	c #E2E3E4",
"U 	c #D5D7D8",
"V 	c #777B80",
"W 	c #41474F",
"X 	c #2C323B",
"Y 	c #2A3139",
"Z 	c #2B323A",
"` 	c #30363E",
" .	c #2A313A",
"..	c #242A33",
"+.	c #242B33",
"@.	c #293039",
"#.	c #2A3039",
"$.	c #212830",
"%.	c #212831",
"&.	c #222932",
"*.	c #F1F1F1",
"=.	c #9B9FA2",
"-.	c #242B34",
";.	c #0F1620",
">.	c #181F28",
",.	c #B7B9BC",
"'.	c #171E27",
").	c #FCFCFC",
"!.	c #52585F",
"~.	c #545960",
"{.	c #686D73",
"].	c #121922",
"^.	c #F2F3F3",
"/.	c #2B3139",
"(.	c #A6A9AC",
"_.	c #BBBDC0",
":.	c #1E252E",
"<.	c #2D333B",
"[.	c #262C35",
"}.	c #1E242D",
"|.	c #2E353D",
"1.	c #676C72",
"2.	c #7C8085",
"3.	c #252B34",
"4.	c #BABCBE",
"5.	c #F0F1F1",
"6.	c #3E444C",
"7.	c #292F38",
"8.	c #7A7F84",
"9.	c #E3E4E5",
"0.	c #919499",
"a.	c #ECEDED",
"b.	c #CDCED0",
"c.	c #F8F8F9",
"d.	c #60656B",
"e.	c #1E252D",
"f.	c #FEFEFE",
"g.	c #EAEBEB",
"h.	c #3C424A",
"i.	c #8E9296",
"j.	c #6E7378",
"k.	c #A0A3A7",
"l.	c #A5A8AC",
"m.	c #E0E0E2",
"n.	c #555B61",
"o.	c #232932",
"p.	c #ECEDEE",
"q.	c #4F545B",
"r.	c #666B71",
"s.	c #EDEEEE",
"t.	c #A2A5A8",
"u.	c #71757B",
"v.	c #B9BBBE",
"w.	c #1F262F",
"x.	c #EFF0F0",
"y.	c #2C323A",
"z.	c #62676D",
"A.	c #BEC0C2",
"B.	c #B5B7BA",
"C.	c #73787D",
"D.	c #A4A6AA",
"E.	c #FBFBFB",
"F.	c #2C333B",
"G.	c #585D64",
"H.	c #767A80",
"I.	c #C1C3C5",
"J.	c #8F9397",
"K.	c #C9CACC",
"L.	c #E0E1E2",
"M.	c #393F47",
"N.	c #51565D",
"O.	c #20272F",
"P.	c #A3A5A9",
"Q.	c #1F252E",
"R.	c #282E37",
"S.	c #DCDDDE",
"T.	c #4B5057",
"U.	c #64696F",
"V.	c #262D36",
"W.	c #9DA0A4",
"X.	c #C2C4C7",
"Y.	c #EBECEC",
"Z.	c #6C7177",
"`.	c #999CA0",
" +	c #5E6369",
".+	c #434850",
"++	c #797D82",
"@+	c #B1B3B6",
"#+	c #A4A7AB",
"$+	c #CECFD1",
"%+	c #CBCDCF",
"&+	c #3C4249",
"*+	c #72767C",
"=+	c #8D9195",
"-+	c #C4C6C8",
";+	c #878A8F",
">+	c #ACAFB2",
",+	c #DFE0E1",
"'+	c #353B43",
")+	c #333A42",
"!+	c #121923",
"~+	c #51575E",
"{+	c #F2F2F2",
"]+	c #B6B8BB",
"^+	c #D8DADB",
"/+	c #9B9EA2",
"(+	c #121A23",
"_+	c #CED0D1",
":+	c #AEB0B3",
"<+	c #75797F",
"[+	c #40454E",
"}+	c #30363F",
"|+	c #9C9FA3",
"1+	c #131A23",
"2+	c #5C6167",
"3+	c #F7F7F7",
"4+	c #444951",
"5+	c #929699",
"6+	c #F3F3F3",
"7+	c #161E27",
"8+	c #5D6268",
"9+	c #ABADB1",
"0+	c #D6D6D8",
"a+	c #EBECED",
"b+	c #E7E8E9",
"c+	c #CDCFD0",
"d+	c #454B52",
"e+	c #1A222B",
"                                                                                                                                ",
"                                                                                                                                ",
"                                                                                                                                ",
"                                                                                                                                ",
"                                                                                                                                ",
"                    . . . . . . . . . . . . . . . . . . . . . . . . . . . . . . . . . . . . . . . . . . . .                     ",
"                  . . + @ # $ $ $ $ $ $ $ $ $ $ $ $ $ $ $ $ $ $ $ $ $ $ $ $ $ $ $ $ $ $ $ $ $ $ $ $ % & + . .                   ",
"              . . . * = - ; > > > > > > > > > > > > > > > > > > > > > > > > > > > > > > > > > > > > , ' ) = + . .               ",
"              . + ! ~ { ] ^ / / / / / / / / / / / / / / / / / / / / / / / / / / / / / / / / / / / / ( _ : < [ } .               ",
"            . . | 1 2 3 3 3 3 3 3 3 3 3 3 3 3 3 3 3 3 3 3 3 3 3 3 3 3 3 3 3 3 3 3 3 3 3 3 3 3 3 3 3 3 3 3 3 4 5 + .             ",
"          . . | 6 7 3 3 3 8 9 0 / / / / / / / / / / / / / / / / / / / / / / / / / / / / / / / / 0 9 8 3 3 3 3 a = . .           ",
"          . . b c 3 3 d e f g h i i i i i i i i i i i i i i i i i i i i i i i i i i i i i i i i h g f e d 3 3 j k + .           ",
"          . } l m 3 n o p 5 q r i i i i i i i i i i i i i i i i i i i i i i i i i i i i i i i i r q 5 p o n 3 s t & .           ",
"          . % , 9 u v w x y z / / / / / / / / / / / / / / / / / / / / / / / / / / / / / / / / / / z y x w v u A B $ .           ",
"          . $ C D E F G 3 3 3 3 3 3 3 3 3 3 3 3 3 3 3 3 3 3 3 3 3 3 3 3 3 3 3 3 3 3 3 3 3 3 3 3 3 3 3 3 G F H D C $ .           ",
"          . $ I J K L 3 3 3 3 M N / / / O P Q / / / 0 P P R P P P P R P P 0 / / / Q P O / / / N M 3 3 3 3 L K J I $ .           ",
"          . $ S T U 3 3 3 s V W X Y Z i `  .h ..i ...., B r +.r , @.I #.r $.- q %.+.B &.- r Y X W V s 3 3 3 U T S $ .           ",
"          . $ > *.3 3 3 =.-.;.>.+ + + . . . . . + . . . . . . . . . . . . . . . . . . . . & $ $ 5 ;.-.=.3 3 3 *.> $ .           ",
"          . $ > / 3 3 ,.* '.. . . . . . . . . . . . . . . . . . . . . . . . . . . . . . . + . . . . '.* ,.3 3 / > $ .           ",
"          . $ > / 3 ).!.5 . . . . . . . . . . . . . . . ~.3 3 3 3 3 {.. . . . . . . . . . . + . . . . ].!.).3 / > $ .           ",
"          . $ > / 3 ^./.+ . . . . . . . . . . . . . . . (.3 3 3 3 3 _.:.. . . . . . . . . . . . . . . & <.^.3 / > $ .           ",
"          . $ > / 3 / [.. . . . . . . . . . . . . . }.../ 3 3 3 3 3 L |.. . . . . . . . . . . . . . . } #./ 3 / > $ .           ",
"          . $ > / 3 / [.. . . . . . . . . . . . . . . 1.3 3 3 3 3 3 3 2.. . . . . . . . . . . . . . . + > / 3 / > $ .           ",
"          . $ > / 3 / 3.. . . . . . . . . . . . . . . 4.3 3 3 3 3 3 3 ] . . . . . . . . . . . . . . . + > / 3 / > $ .           ",
"          . $ > / 3 5.3.. . . . . . . . . . . . . . C L 3 3 3 3 3 3 3 3 6.. . . . . . . . . . . . . . + 7./ 3 / > $ .           ",
"          . $ > / 3 O 3.. . . . . . . . . . . . . . 8.3 3 3 3 9.3 3 3 3 0.. . . . . . . . . . . . . . . i / 3 / > $ .           ",
"          . $ > / 3 a.[.. . . . . . . . . . . . . . b.3 3 3 c.d.3 3 3 3 T e.. . . . . . . . . . . . . . -./ 3 / > $ .           ",
"          . $ > / f.g.i + . . . . . . . . . . . . h.3 3 3 3 4.:.( 3 3 3 3 !.. . . . . . . . . . . . . . %./ 3 / > $ .           ",
"          . $ > / f.g.7.+ . . . . . . . . . . . . i.3 3 3 3 j.. k.3 3 3 3 l.. . . . . . . . . . . . . . - / 3 / > $ .           ",
"          . $ > / f.g.7.+ . . . . . . . . . . . . m.3 3 3 M #.. n.3 3 3 3 5.o.. . . . . . . . . . . . . - / 3 / > $ .           ",
"          . $ > / f.p.i + . . . . . . . . . . . q.3 3 3 3 _.. . :.g.3 3 3 3 r.. . . . . . . . . . . . . - / 3 / > $ .           ",
"          . $ > / 3 s.i . . . . . . . . . . . . t.3 3 3 3 u.. . . t.3 3 3 3 v.. . . . . . . . . . . . . w./ 3 / > $ .           ",
"          . $ > / 3 x.3.. . . . . . . . . . . ' Q 3 3 3 L y.. . . a 3 3 3 3 L C . . . . . . . . . . . . w./ 3 / > $ .           ",
"          . $ > / 3 5.o.. . . . . . . . . . . z.3 3 3 3 A.. . . . w.G 3 3 3 3 8.. . . . . . . . . . . . - 5.3 / > $ .           ",
"          . $ > / 3 / ..+ . . . . . . . . . . B.3 3 3 3 C.. . . . . D.3 3 3 3 b.. . . . . . . . . . . . o.5.3 / > $ .           ",
"          . $ > / 3 / i . . . . . . . . . . > c.3 3 3 E.F.. . . . . G.3 3 3 3 3 h.. . . . . . + . . . . ..x.3 / > $ .           ",
"          . $ > / 3 / r + . . . . . . . . . H.3 3 3 3 I.. . . . . . w.G 3 3 3 3 J.. . . . . + . . . . . +.x.3 / > $ .           ",
"          . $ > / 3 / i . . . . . . . . . . K.3 3 3 3 3 3 3 3 3 3 3 3 3 3 3 3 3 L.. . . . . . . . . . . o.x.3 / > $ .           ",
"          . $ > / 3 / t . . . . . . . . . M.3 3 3 3 3 3 3 3 3 3 3 3 3 3 3 3 3 3 3 N.. . . . . . . . . . O.5.3 / > $ .           ",
"          . $ > / 3 / ... . . . . . . . . e 3 3 3 3 3 3 3 3 3 3 3 3 3 3 3 3 3 3 3 P.. . . . . . . . . . Q.5.3 / > $ .           ",
"          . $ > / 3 / R.. . . . . . . . . S.3 3 3 3 3 3 3 3 3 3 3 3 3 3 3 3 3 3 3 Q ' . . . . . . . . . . / 3 / > $ .           ",
"          . $ > / 3 / B + . . . . . . . T.3 3 3 3 3 3 3 3 3 3 3 3 3 3 3 3 3 3 3 3 3 U.. . . . . . . . . . / 3 / > $ .           ",
"          . $ > / 3 / V.+ . . . . . . . W.3 3 3 3 X.. . . . . . . . . . %.Y.3 3 3 3 ,.. . . . . . . . . w./ 3 / > $ .           ",
"          . $ > / 3 / -.+ . . . . . . - Y.3 3 3 3 Z.. . . . . . . . . . . `.3 3 3 3 M F.. . . . . . . . %./ 3 / > $ .           ",
"          . $ > / 3 / [.. . . . . . .  +3 3 3 3 N -.. . . . . . . . . . . .+3 3 3 3 3 ++. . . . . . . . -./ 3 / > $ .           ",
"          . $ > / 3 / [.. . . . . . . @+3 3 3 3 #+. . . . . . . . . . . . . $+3 3 3 3 %+. . . . . . . . [./ 3 / > $ .           ",
"          . $ > / 3 / 3.. . . . . . , 2 3 3 3 3 q.. . . . . . . . . . . . . 1 3 3 3 3 3 &+. . . . . . . i / 3 / > $ .           ",
"          . $ > / 3 / [.+ . . . . . *+3 3 3 3 S.. . . . . . . . . . . . . . B 2 3 3 3 3 =+. . . . . . . R./ 3 / > $ .           ",
"          . $ > / 3 ^.> + . . . . . -+3 3 3 3 ;+. . . . . . . . . . . . . . . >+3 3 3 3 ,+. . . . . . } X ^.3 / > $ .           ",
"          . $ > / 3 ).H 5 . . . . '+8 3 3 3 ).)+. . . . . . . . . . . . . . . n.3 3 3 3 3 q.. . . + + !+~+).3 {+> $ .           ",
"          . $ B a.3 3 ]+| } . . . . . . . . . . . . . . . . . . . . . . . . . . . . . . . . . . . + '.| B.3 3 z , % .           ",
"          . & t ^+3 3 3 /+&.& + + . . . . . . . . . . . . . . . . . . . . . . . + + } + . . . . + (+-./+3 3 3 _+O.} .           ",
"          . + 5 :+3 3 3 3 s <+[+-.:.. w.%.-.[.[.[.[.[.[.+.-.7.F.C C 3.$.q [.[.i R.#.> i l w.. :.}+<+s 3 3 3 3 |+1+. .           ",
"          . . 1+2+3 3 3 3 3 3 c./ / / / / / / / / / / / / 5.P P P P 5./ / / / / / / / / / / / / c.3 3 3 3 3 3+4+k . .           ",
"            . + >.5+3 3 3 3 3 3 3 3 3 3 3 3 3 3 3 3 3 3 3 3 3 3 3 3 3 3 3 3 3 3 3 3 3 3 3 3 3 3 3 3 3 3 3 6+j.= . .             ",
"              . @ 7+8+9+0+a+/ / / / / / / / / / / / / / / / / / / / / / / / / / / / / / / / / / / / b+c+W.d+= + .               ",
"              . . + (+5 &.7.> > > > > > > > > > > > > > > > > > > > > > > > > > > > > > > > > > > > R.- (+) . . .               ",
"                  . . + & % $ $ $ $ $ $ $ $ $ $ $ $ $ $ $ $ $ $ $ $ $ $ $ $ $ $ $ $ $ $ $ $ $ $ $ $ # e++ . .                   ",
"                    . . . . . . . . . . . . . . . . . . . . . . . . . . . . . . . . . . . . . . . . . . . .                     ",
"                                                                                                                                ",
"                                                                                                                                ",
"                                                                                                                                ",
"                                                                                                                                ",
"                                                                                                                                "};
