/* XPM */
const static char * BBGIcon20[] = {
"20 20 125 2",
"  	c None",
". 	c #171E27",
"+ 	c #666B71",
"@ 	c #8E9297",
"# 	c #909498",
"$ 	c #8F9297",
"% 	c #6A6F75",
"& 	c #191F29",
"* 	c #686C72",
"= 	c #ECECED",
"- 	c #909398",
"; 	c #868B8F",
"> 	c #878B8F",
", 	c #EBECEC",
"' 	c #A6A9AC",
") 	c #EAEBEB",
"! 	c #EBEDED",
"~ 	c #ECEDED",
"{ 	c #EAEBEC",
"] 	c #EBEBEC",
"^ 	c #686C73",
"/ 	c #ECEDEE",
"( 	c #363C44",
"_ 	c #111821",
": 	c #131B24",
"< 	c #0F1721",
"[ 	c #111721",
"} 	c #101821",
"| 	c #121923",
"1 	c #101720",
"2 	c #0E161F",
"3 	c #101721",
"4 	c #0F1620",
"5 	c #353C43",
"6 	c #84888D",
"7 	c #182029",
"8 	c #1C232C",
"9 	c #1D232C",
"0 	c #1D242D",
"a 	c #181F28",
"b 	c #86898D",
"c 	c #7E8387",
"d 	c #192029",
"e 	c #1C242D",
"f 	c #82858A",
"g 	c #7D8086",
"h 	c #242B33",
"i 	c #2C323B",
"j 	c #292F38",
"k 	c #242B34",
"l 	c #2C333B",
"m 	c #282F38",
"n 	c #2B323A",
"o 	c #212831",
"p 	c #7E8287",
"q 	c #CDCED0",
"r 	c #F4F4F5",
"s 	c #3A4048",
"t 	c #9EA2A5",
"u 	c #7F8388",
"v 	c #D2D3D5",
"w 	c #83878B",
"x 	c #B5B7BB",
"y 	c #595D64",
"z 	c #61666C",
"A 	c #7C8085",
"B 	c #7D8186",
"C 	c #C4C6C9",
"D 	c #BDBFC2",
"E 	c #F8F8F9",
"F 	c #333942",
"G 	c #9A9DA1",
"H 	c #B2B5B8",
"I 	c #DFE0E1",
"J 	c #2D343C",
"K 	c #D8D9DA",
"L 	c #141B25",
"M 	c #767B80",
"N 	c #9DA0A3",
"O 	c #81858A",
"P 	c #C9CBCD",
"Q 	c #64696E",
"R 	c #A3A5A9",
"S 	c #878A8F",
"T 	c #9A9EA1",
"U 	c #565B62",
"V 	c #797D82",
"W 	c #909397",
"X 	c #A2A5A8",
"Y 	c #909499",
"Z 	c #84888C",
"` 	c #6C7177",
" .	c #979B9F",
"..	c #8A8D92",
"+.	c #293039",
"@.	c #5B6066",
"#.	c #8C9095",
"$.	c #282F37",
"%.	c #1F262F",
"&.	c #7B8084",
"*.	c #61666D",
"=.	c #7F8389",
"-.	c #7D8286",
";.	c #8D9196",
">.	c #A4A6AA",
",.	c #141C25",
"'.	c #19202A",
").	c #141B24",
"!.	c #8D9195",
"~.	c #6B7075",
"{.	c #FFFFFF",
"].	c #B3B5B9",
"^.	c #7A7F84",
"/.	c #808389",
"(.	c #7F8488",
"_.	c #80858A",
":.	c #818489",
"<.	c #818589",
"[.	c #797E83",
"}.	c #B0B3B6",
"|.	c #65696F",
"1.	c #1A212A",
"2.	c #8C9094",
"3.	c #64686E",
"4.	c #161D27",
"                                        ",
"                                        ",
"    . + @ # # # # # # # # # # $ % &     ",
"    * = - ; > > > > > > > > ; - , %     ",
"    * ' ) ! ) ~ { ) ) ] ~ { ! ) ' ^     ",
"    > / ( _ : < [ } | 1 2 3 4 5 / >     ",
"    # 6 7 8 8 8 9 0 0 0 8 8 8 a b #     ",
"    # c d 0 0 0 e 8 8 8 0 0 0 d f #     ",
"    # g h i j 8 k l m 0 0 j n o p #     ",
"    - g q # r s t u v m w x y z A #     ",
"    # B C D E F G H I J K L M N O #     ",
"    # u P Q R S T U V W X Y 3 r Z #     ",
"    # u `  ...+.@.G #.$.%.&.G *.B Y     ",
"    # =.d 0 0 0 0 0 0 0 0 0 0 d -.#     ",
"    # p d 0 0 0 0 0 0 0 0 0 0 d u #     ",
"    ;.>.,.d d d d d d d d d '.).>.!.    ",
"    ~.{.].^.p /./.(._.u :.<.[.}.{.|.    ",
"    1.% #.Y # # # # # # # # Y 2.3.4.    ",
"                                        ",
"                                        "};
