/* XPM */
const static char * FdIcon64[] = {
"64 64 207 2",
"  	c None",
". 	c #1D242D",
"+ 	c #1C232C",
"@ 	c #1A212B",
"# 	c #19212A",
"$ 	c #192029",
"% 	c #19202A",
"& 	c #1A212A",
"* 	c #141C25",
"= 	c #131A24",
"- 	c #202730",
"; 	c #272E37",
"> 	c #2B313A",
", 	c #282F37",
"' 	c #222931",
") 	c #151C25",
"! 	c #131B24",
"~ 	c #4A5158",
"{ 	c #A0A4A7",
"] 	c #CFD0D2",
"^ 	c #E6E7E8",
"/ 	c #F1F2F2",
"( 	c #E9EAEB",
"_ 	c #D4D5D7",
": 	c #A8ABAE",
"< 	c #575D63",
"[ 	c #151D26",
"} 	c #1B222B",
"| 	c #141B25",
"1 	c #777B81",
"2 	c #F6F7F7",
"3 	c #FFFFFF",
"4 	c #898C91",
"5 	c #161D26",
"6 	c #4C5158",
"7 	c #FBFBFC",
"8 	c #FDFDFD",
"9 	c #F4F4F5",
"0 	c #F1F1F2",
"a 	c #565B62",
"b 	c #141B24",
"c 	c #A3A5AA",
"d 	c #E1E1E3",
"e 	c #898D92",
"f 	c #4E535A",
"g 	c #30373E",
"h 	c #252C35",
"i 	c #272D36",
"j 	c #AAADB0",
"k 	c #151C26",
"l 	c #222831",
"m 	c #D3D5D7",
"n 	c #B0B2B5",
"o 	c #252C34",
"p 	c #030A15",
"q 	c #232A33",
"r 	c #272E36",
"s 	c #D8D9DB",
"t 	c #232A32",
"u 	c #C6C8CA",
"v 	c #0F1720",
"w 	c #323940",
"x 	c #929599",
"y 	c #CACCCE",
"z 	c #E9E9EA",
"A 	c #F6F6F7",
"B 	c #293038",
"C 	c #2D343C",
"D 	c #F3F3F4",
"E 	c #52575F",
"F 	c #5F646A",
"G 	c #ECECED",
"H 	c #52575E",
"I 	c #2F353D",
"J 	c #DADCDD",
"K 	c #6D7177",
"L 	c #FAFAFA",
"M 	c #F9F9F9",
"N 	c #F2F2F3",
"O 	c #EEEFEF",
"P 	c #EDEEEF",
"Q 	c #EFEFF0",
"R 	c #EEEEEF",
"S 	c #2D333C",
"T 	c #E2E3E4",
"U 	c #D5D7D8",
"V 	c #777B80",
"W 	c #41474F",
"X 	c #2C323B",
"Y 	c #2A3139",
"Z 	c #2B323A",
"` 	c #30363E",
" .	c #2A313A",
"..	c #242A33",
"+.	c #242B33",
"@.	c #293039",
"#.	c #2A3039",
"$.	c #212830",
"%.	c #212831",
"&.	c #222932",
"*.	c #F1F1F1",
"=.	c #9B9FA2",
"-.	c #242B34",
";.	c #0F1620",
">.	c #181F28",
",.	c #B7B9BC",
"'.	c #171E27",
").	c #FCFCFC",
"!.	c #52585F",
"~.	c #121922",
"{.	c #F2F3F3",
"].	c #2B3139",
"^.	c #1E252E",
"/.	c #1F262F",
"(.	c #1F262E",
"_.	c #2D333B",
":.	c #262C35",
"<.	c #1E242D",
"[.	c #252B34",
"}.	c #BFC1C3",
"|.	c #F0F1F1",
"1.	c #292F38",
"2.	c #ECEDED",
"3.	c #F4F4F4",
"4.	c #B8BABD",
"5.	c #FEFEFE",
"6.	c #EAEBEB",
"7.	c #ECEDEE",
"8.	c #3A4048",
"9.	c #93969A",
"0.	c #CDCED0",
"a.	c #EBECEC",
"b.	c #EDEDEE",
"c.	c #9C9FA3",
"d.	c #EDEEEE",
"e.	c #FBFBFB",
"f.	c #EFF0F0",
"g.	c #B4B7B9",
"h.	c #C3C5C7",
"i.	c #232932",
"j.	c #9A9DA1",
"k.	c #D1D3D5",
"l.	c #B3B6B9",
"m.	c #B2B4B7",
"n.	c #C8C9CC",
"o.	c #393F47",
"p.	c #BCBEC1",
"q.	c #41474E",
"r.	c #8D9095",
"s.	c #C9CBCD",
"t.	c #62666D",
"u.	c #E8E9EA",
"v.	c #2F353E",
"w.	c #20272F",
"x.	c #363C44",
"y.	c #1F252E",
"z.	c #282E37",
"A.	c #DCDDDE",
"B.	c #73777C",
"C.	c #AAACB0",
"D.	c #E1E2E3",
"E.	c #262D36",
"F.	c #60656B",
"G.	c #D8D9DA",
"H.	c #1E252D",
"I.	c #373D45",
"J.	c #CBCDCF",
"K.	c #C7C8CB",
"L.	c #E0E1E2",
"M.	c #3C4249",
"N.	c #E7E8E9",
"O.	c #3B4148",
"P.	c #5C6168",
"Q.	c #A9ABAF",
"R.	c #DADBDD",
"S.	c #656A70",
"T.	c #121923",
"U.	c #51575E",
"V.	c #F2F2F2",
"W.	c #B6B8BB",
"X.	c #B5B7BA",
"Y.	c #D8DADB",
"Z.	c #9B9EA2",
"`.	c #121A23",
" +	c #CED0D1",
".+	c #AEB0B3",
"++	c #75797F",
"@+	c #40454E",
"#+	c #2C333B",
"$+	c #30363F",
"%+	c #131A23",
"&+	c #5C6167",
"*+	c #F8F8F9",
"=+	c #F7F7F7",
"-+	c #444951",
";+	c #929699",
">+	c #F3F3F3",
",+	c #6E7378",
"'+	c #161E27",
")+	c #5D6268",
"!+	c #ABADB1",
"~+	c #D6D6D8",
"{+	c #EBECED",
"]+	c #CDCFD0",
"^+	c #9DA0A4",
"/+	c #454B52",
"(+	c #1A222B",
"                                                                                                                                ",
"                                                                                                                                ",
"                                                                                                                                ",
"                                                                                                                                ",
"                                                                                                                                ",
"                    . . . . . . . . . . . . . . . . . . . . . . . . . . . . . . . . . . . . . . . . . . . .                     ",
"                  . . + @ # $ $ $ $ $ $ $ $ $ $ $ $ $ $ $ $ $ $ $ $ $ $ $ $ $ $ $ $ $ $ $ $ $ $ $ $ % & + . .                   ",
"              . . . * = - ; > > > > > > > > > > > > > > > > > > > > > > > > > > > > > > > > > > > > , ' ) = + . .               ",
"              . + ! ~ { ] ^ / / / / / / / / / / / / / / / / / / / / / / / / / / / / / / / / / / / / ( _ : < [ } .               ",
"            . . | 1 2 3 3 3 3 3 3 3 3 3 3 3 3 3 3 3 3 3 3 3 3 3 3 3 3 3 3 3 3 3 3 3 3 3 3 3 3 3 3 3 3 3 3 3 4 5 + .             ",
"          . . | 6 7 3 3 3 8 9 0 / / / / / / / / / / / / / / / / / / / / / / / / / / / / / / / / 0 9 8 3 3 3 3 a = . .           ",
"          . . b c 3 3 d e f g h i i i i i i i i i i i i i i i i i i i i i i i i i i i i i i i i h g f e d 3 3 j k + .           ",
"          . } l m 3 n o p 5 q r i i i i i i i i i i i i i i i i i i i i i i i i i i i i i i i i r q 5 p o n 3 s t & .           ",
"          . % , 9 u v w x y z / / / / / / / / / / / / / / / / / / / / / / / / / / / / / / / / / / z y x w v u A B $ .           ",
"          . $ C D E F G 3 3 3 3 3 3 3 3 3 3 3 3 3 3 3 3 3 3 3 3 3 3 3 3 3 3 3 3 3 3 3 3 3 3 3 3 3 3 3 3 G F H D C $ .           ",
"          . $ I J K L 3 3 3 3 M N / / / O P Q / / / 0 P P R P P P P R P P 0 / / / Q P O / / / N M 3 3 3 3 L K J I $ .           ",
"          . $ S T U 3 3 3 s V W X Y Z i `  .h ..i ...., B r +.r , @.I #.r $.- q %.+.B &.- r Y X W V s 3 3 3 U T S $ .           ",
"          . $ > *.3 3 3 =.-.;.>.+ + + . . . . . + . . . . . . . . . . . . . . . . . . . . & $ $ 5 ;.-.=.3 3 3 *.> $ .           ",
"          . $ > / 3 3 ,.* '.. . . . . . . . . . . . . . . . . . . . . . . . . . . . . . . + . . . . '.* ,.3 3 / > $ .           ",
"          . $ > / 3 ).!.5 . . . . . . . . . . . . . . . . . . . . . . . . . . . . . . . . . + . . . . ~.!.).3 / > $ .           ",
"          . $ > / 3 {.].+ . . . . . . . . . . . . . . . . ^./.(.^.^.^.^.. . . . . . . . . . . . . . . & _.{.3 / > $ .           ",
"          . $ > / 3 / :.. . . . . . . . . . . . . . <.^.. . . . . . . . . . . . . . . . . . . . . . . } #./ 3 / > $ .           ",
"          . $ > / 3 / :.. . . . . . . . . . . . . . . . . . . . . . . . . . . . . . . . . . . . . . . + > / 3 / > $ .           ",
"          . $ > / 3 / [.. . 3 3 3 3 3 3 3 3 3 3 3 3 3 3 3 }.. . . . . . . . . . . . . . . . 3 3 3 3 . + > / 3 / > $ .           ",
"          . $ > / 3 |.[.. . 3 3 3 3 3 3 3 3 3 3 3 3 3 3 3 }.. . . . . . . . . . . . . . . . 3 3 3 3 . + 1./ 3 / > $ .           ",
"          . $ > / 3 O [.. . 3 3 3 3 3 3 3 3 3 3 3 3 3 3 3 }.. . . . . . . . . . . . . . . . 3 3 3 3 . . i / 3 / > $ .           ",
"          . $ > / 3 2.:.. . 3 3 3 3 3.3.3.3.3.3.3.3.3.3.3.4.. . . . . . . . . . . . . . . . 3 3 3 3 . . -./ 3 / > $ .           ",
"          . $ > / 5.6.i + . 3 3 3 3 . . . . . . . . . . . . . . . . . . . . . . . . . . . . 3 3 3 3 . . %./ 3 / > $ .           ",
"          . $ > / 5.6.1.+ . 3 3 3 3 . . . . . . . . . . . . . . . . . . . . . . . . . . . . 3 3 3 3 . . - / 3 / > $ .           ",
"          . $ > / 5.6.1.+ . 3 3 3 3 . . . . . . . . . . . . . . . . . . . . . . . . . . . . 3 3 3 3 . . - / 3 / > $ .           ",
"          . $ > / 5.7.i + . 3 3 3 3 . . . . . . . . . . . . . . . . . . . . 8.9.0.a.L b._ c.3 3 3 3 . . - / 3 / > $ .           ",
"          . $ > / 3 d.i . . 3 3 3 3 . . . . . . . . . . . . . . . . . . %.c.e.3 3 3 3 3 3 3 3 3 3 3 . . /./ 3 / > $ .           ",
"          . $ > / 3 f.[.. . 3 3 3 3 3 3 3 3 3 3 3 3 3 3 g.. . . . . . %.h.3 3 3 3 3 3 3 3 3 3 3 3 3 . . /./ 3 / > $ .           ",
"          . $ > / 3 |.i.. . 3 3 3 3 3 3 3 3 3 3 3 3 3 3 g.. . . . . . j.3 3 3 3 3 k.l.m.n.3.3 3 3 3 . . - |.3 / > $ .           ",
"          . $ > / 3 / ..+ . 3 3 3 3 3 3 3 3 3 3 3 3 3 3 g.. . . . . o.L 3 3 3 p.q.. . . . /.3 3 3 3 . . i.|.3 / > $ .           ",
"          . $ > / 3 / i . . 3 3 3 3 3 3 3 3 3 3 3 3 3 3 g.. . . . . r.3 3 3 0./.. . . . . . 3 3 3 3 . . ..f.3 / > $ .           ",
"          . $ > / 3 / r + . 3 3 3 3 . . . . . . . . . . . . . . . . s.3 3 3 t.. . . . . . . 3 3 3 3 . . +.f.3 / > $ .           ",
"          . $ > / 3 / i . . 3 3 3 3 . . . . . . . . . . . . . . . . u.3 3 3 v.. . . . . . . 3 3 3 3 . . i.f.3 / > $ .           ",
"          . $ > / 3 / t . . 3 3 3 3 . . . . . . . . . . . . . . . . M 3 3 3 ' . . . . . . . 3 3 3 3 . . w.|.3 / > $ .           ",
"          . $ > / 3 / ... . 3 3 3 3 . . . . . . . . . . . . . . . . |.3 3 3 x.. . . . . . . 3 3 3 3 . . y.|.3 / > $ .           ",
"          . $ > / 3 / z.. . 3 3 3 3 . . . . . . . . . . . . . . . . A.3 3 3 B.. . . . . . . 3 3 3 3 . . . / 3 / > $ .           ",
"          . $ > / 3 / B + . 3 3 3 3 . . . . . . . . . . . . . . . . C.3 3 3 D.#.. . . . . . 3 3 3 3 . . . / 3 / > $ .           ",
"          . $ > / 3 / E.+ . 3 3 3 3 . . . . . . . . . . . . . . . . F.3 3 3 3 G.F.H.. . . I.3 3 3 3 . . /./ 3 / > $ .           ",
"          . $ > / 3 / -.+ . 3 3 3 3 . . . . . . . . . . . . . . . . . J.3 3 3 3 3 ( s.K.L.3 3 3 3 3 . . %./ 3 / > $ .           ",
"          . $ > / 3 / :.. . 3 3 3 3 . . . . . . . . . . . . . . . . . M.N.3 3 3 3 3 3 3 3 3 3 3 3 3 . . -./ 3 / > $ .           ",
"          . $ > / 3 / :.. . 3 3 3 3 . . . . . . . . . . . . . . . . . . O.s.3 3 3 3 3 3 3 3 M 3 3 3 . . :./ 3 / > $ .           ",
"          . $ > / 3 / [.. . 3 3 3 3 . . . . . . . . . . . . . . . . . . . H.P.Q.J.G 3.R.g.S.I.3 3 3 . . i / 3 / > $ .           ",
"          . $ > / 3 / :.+ . . . . . . . . . . . . . . . . . . . . . . . . . . . + . . . . . . . . . . . z./ 3 / > $ .           ",
"          . $ > / 3 {.> + . . . . . . . . . . . . . . . . . . . . . . . . . . . . . . . . . . . . . . } X {.3 / > $ .           ",
"          . $ > / 3 ).H 5 . . . . . . . . . . . . . . . . . . . . . . . . . . . . . . . . . . . . + + T.U.).3 V.> $ .           ",
"          . $ B 2.3 3 W.| } . . . . . . . . . . . . . . . . . . . . . . . . . . . . . . . . . . . + '.| X.3 3 z , % .           ",
"          . & t Y.3 3 3 Z.&.& + + . . . . . . . . . . . . . . . . . . . . . . . + + } + . . . . + `.-.Z.3 3 3  +w.} .           ",
"          . + 5 .+3 3 3 3 s ++@+-.^.. /.%.-.:.:.:.:.:.:.+.-.1.#+C C [.$.q :.:.i z.#.> i l /.. ^.$+++s 3 3 3 3 c.%+. .           ",
"          . . %+&+3 3 3 3 3 3 *+/ / / / / / / / / / / / / |.P P P P |./ / / / / / / / / / / / / *+3 3 3 3 3 =+-+k . .           ",
"            . + >.;+3 3 3 3 3 3 3 3 3 3 3 3 3 3 3 3 3 3 3 3 3 3 3 3 3 3 3 3 3 3 3 3 3 3 3 3 3 3 3 3 3 3 3 >+,+= . .             ",
"              . @ '+)+!+~+{+/ / / / / / / / / / / / / / / / / / / / / / / / / / / / / / / / / / / / N.]+^+/+= + .               ",
"              . . + `.5 &.1.> > > > > > > > > > > > > > > > > > > > > > > > > > > > > > > > > > > > z.- `.) . . .               ",
"                  . . + & % $ $ $ $ $ $ $ $ $ $ $ $ $ $ $ $ $ $ $ $ $ $ $ $ $ $ $ $ $ $ $ $ $ $ $ $ # (++ . .                   ",
"                    . . . . . . . . . . . . . . . . . . . . . . . . . . . . . . . . . . . . . . . . . . . .                     ",
"                                                                                                                                ",
"                                                                                                                                ",
"                                                                                                                                ",
"                                                                                                                                ",
"                                                                                                                                "};
