/* XPM */
const static char * LIcon64[] = {
"64 64 166 2",
"  	c None",
". 	c #1D242D",
"+ 	c #1C232C",
"@ 	c #1A212B",
"# 	c #19212A",
"$ 	c #192029",
"% 	c #19202A",
"& 	c #1A212A",
"* 	c #141C25",
"= 	c #131A24",
"- 	c #202730",
"; 	c #272E37",
"> 	c #2B313A",
", 	c #282F37",
"' 	c #222931",
") 	c #151C25",
"! 	c #131B24",
"~ 	c #4A5158",
"{ 	c #A0A4A7",
"] 	c #CFD0D2",
"^ 	c #E6E7E8",
"/ 	c #F1F2F2",
"( 	c #E9EAEB",
"_ 	c #D4D5D7",
": 	c #A8ABAE",
"< 	c #575D63",
"[ 	c #151D26",
"} 	c #1B222B",
"| 	c #141B25",
"1 	c #777B81",
"2 	c #F6F7F7",
"3 	c #FFFFFF",
"4 	c #898C91",
"5 	c #161D26",
"6 	c #4C5158",
"7 	c #FBFBFC",
"8 	c #FDFDFD",
"9 	c #F4F4F5",
"0 	c #F1F1F2",
"a 	c #565B62",
"b 	c #141B24",
"c 	c #A3A5AA",
"d 	c #E1E1E3",
"e 	c #898D92",
"f 	c #4E535A",
"g 	c #30373E",
"h 	c #252C35",
"i 	c #272D36",
"j 	c #AAADB0",
"k 	c #151C26",
"l 	c #222831",
"m 	c #D3D5D7",
"n 	c #B0B2B5",
"o 	c #252C34",
"p 	c #030A15",
"q 	c #232A33",
"r 	c #272E36",
"s 	c #D8D9DB",
"t 	c #232A32",
"u 	c #C6C8CA",
"v 	c #0F1720",
"w 	c #323940",
"x 	c #929599",
"y 	c #CACCCE",
"z 	c #E9E9EA",
"A 	c #F6F6F7",
"B 	c #293038",
"C 	c #2D343C",
"D 	c #F3F3F4",
"E 	c #52575F",
"F 	c #5F646A",
"G 	c #ECECED",
"H 	c #52575E",
"I 	c #2F353D",
"J 	c #DADCDD",
"K 	c #6D7177",
"L 	c #FAFAFA",
"M 	c #F9F9F9",
"N 	c #F2F2F3",
"O 	c #EEEFEF",
"P 	c #EDEEEF",
"Q 	c #EFEFF0",
"R 	c #EEEEEF",
"S 	c #2D333C",
"T 	c #E2E3E4",
"U 	c #D5D7D8",
"V 	c #777B80",
"W 	c #41474F",
"X 	c #2C323B",
"Y 	c #2A3139",
"Z 	c #2B323A",
"` 	c #30363E",
" .	c #2A313A",
"..	c #242A33",
"+.	c #242B33",
"@.	c #293039",
"#.	c #2A3039",
"$.	c #212830",
"%.	c #212831",
"&.	c #222932",
"*.	c #F1F1F1",
"=.	c #9B9FA2",
"-.	c #242B34",
";.	c #0F1620",
">.	c #181F28",
",.	c #B7B9BC",
"'.	c #171E27",
").	c #FCFCFC",
"!.	c #52585F",
"~.	c #121922",
"{.	c #F2F3F3",
"].	c #2B3139",
"^.	c #1E252E",
"/.	c #1F262F",
"(.	c #1F262E",
"_.	c #2D333B",
":.	c #262C35",
"<.	c #252B34",
"[.	c #F0F1F1",
"}.	c #292F38",
"|.	c #ECEDED",
"1.	c #FEFEFE",
"2.	c #EAEBEB",
"3.	c #ECEDEE",
"4.	c #EDEEEE",
"5.	c #EFF0F0",
"6.	c #232932",
"7.	c #20272F",
"8.	c #1F252E",
"9.	c #282E37",
"0.	c #262D36",
"a.	c #F7F8F8",
"b.	c #31373F",
"c.	c #121923",
"d.	c #51575E",
"e.	c #F2F2F2",
"f.	c #B6B8BB",
"g.	c #B5B7BA",
"h.	c #D8DADB",
"i.	c #9B9EA2",
"j.	c #121A23",
"k.	c #CED0D1",
"l.	c #AEB0B3",
"m.	c #75797F",
"n.	c #40454E",
"o.	c #2C333B",
"p.	c #30363F",
"q.	c #9C9FA3",
"r.	c #131A23",
"s.	c #5C6167",
"t.	c #F8F8F9",
"u.	c #F7F7F7",
"v.	c #444951",
"w.	c #929699",
"x.	c #F3F3F3",
"y.	c #6E7378",
"z.	c #161E27",
"A.	c #5D6268",
"B.	c #ABADB1",
"C.	c #D6D6D8",
"D.	c #EBECED",
"E.	c #E7E8E9",
"F.	c #CDCFD0",
"G.	c #9DA0A4",
"H.	c #454B52",
"I.	c #1A222B",
"                                                                                                                                ",
"                                                                                                                                ",
"                                                                                                                                ",
"                                                                                                                                ",
"                                                                                                                                ",
"                    . . . . . . . . . . . . . . . . . . . . . . . . . . . . . . . . . . . . . . . . . . . .                     ",
"                  . . + @ # $ $ $ $ $ $ $ $ $ $ $ $ $ $ $ $ $ $ $ $ $ $ $ $ $ $ $ $ $ $ $ $ $ $ $ $ % & + . .                   ",
"              . . . * = - ; > > > > > > > > > > > > > > > > > > > > > > > > > > > > > > > > > > > > , ' ) = + . .               ",
"              . + ! ~ { ] ^ / / / / / / / / / / / / / / / / / / / / / / / / / / / / / / / / / / / / ( _ : < [ } .               ",
"            . . | 1 2 3 3 3 3 3 3 3 3 3 3 3 3 3 3 3 3 3 3 3 3 3 3 3 3 3 3 3 3 3 3 3 3 3 3 3 3 3 3 3 3 3 3 3 4 5 + .             ",
"          . . | 6 7 3 3 3 8 9 0 / / / / / / / / / / / / / / / / / / / / / / / / / / / / / / / / 0 9 8 3 3 3 3 a = . .           ",
"          . . b c 3 3 d e f g h i i i i i i i i i i i i i i i i i i i i i i i i i i i i i i i i h g f e d 3 3 j k + .           ",
"          . } l m 3 n o p 5 q r i i i i i i i i i i i i i i i i i i i i i i i i i i i i i i i i r q 5 p o n 3 s t & .           ",
"          . % , 9 u v w x y z / / / / / / / / / / / / / / / / / / / / / / / / / / / / / / / / / / z y x w v u A B $ .           ",
"          . $ C D E F G 3 3 3 3 3 3 3 3 3 3 3 3 3 3 3 3 3 3 3 3 3 3 3 3 3 3 3 3 3 3 3 3 3 3 3 3 3 3 3 3 G F H D C $ .           ",
"          . $ I J K L 3 3 3 3 M N / / / O P Q / / / 0 P P R P P P P R P P 0 / / / Q P O / / / N M 3 3 3 3 L K J I $ .           ",
"          . $ S T U 3 3 3 s V W X Y Z i `  .h ..i ...., B r +.r , @.I #.r $.- q %.+.B &.- r Y X W V s 3 3 3 U T S $ .           ",
"          . $ > *.3 3 3 =.-.;.>.+ + + . . . . . + . . . . . . . . . . . . . . . . . . . . & $ $ 5 ;.-.=.3 3 3 *.> $ .           ",
"          . $ > / 3 3 ,.* '.. . . . . . . . . . . . . . . . . . . . . . . . . . . . . . . + . . . . '.* ,.3 3 / > $ .           ",
"          . $ > / 3 ).!.5 . . . . . . . . . 3 3 3 3 3 . . . . . . . . . . . . . . . . . . . + . . . . ~.!.).3 / > $ .           ",
"          . $ > / 3 {.].+ . . . . . . . . . 3 3 3 3 3 . . ^./.(.^.^.^.^.. . . . . . . . . . . . . . . & _.{.3 / > $ .           ",
"          . $ > / 3 / :.. . . . . . . . . . 3 3 3 3 3 ^.. . . . . . . . . . . . . . . . . . . . . . . } #./ 3 / > $ .           ",
"          . $ > / 3 / :.. . . . . . . . . . 3 3 3 3 3 . . . . . . . . . . . . . . . . . . . . . . . . + > / 3 / > $ .           ",
"          . $ > / 3 / <.. . . . . . . . . . 3 3 3 3 3 . . . . . . . . . . . . . . . . . . . . . . . . + > / 3 / > $ .           ",
"          . $ > / 3 [.<.. . . . . . . . . . 3 3 3 3 3 . . . . . . . . . . . . . . . . . . . . . . . . + }./ 3 / > $ .           ",
"          . $ > / 3 O <.. . . . . . . . . . 3 3 3 3 3 . . . . . . . . . . . . . . . . . . . . . . . . . i / 3 / > $ .           ",
"          . $ > / 3 |.:.. . . . . . . . . . 3 3 3 3 3 . . . . . . . . . . . . . . . . . . . . . . . . . -./ 3 / > $ .           ",
"          . $ > / 1.2.i + . . . . . . . . . 3 3 3 3 3 . . . . . . . . . . . . . . . . . . . . . . . . . %./ 3 / > $ .           ",
"          . $ > / 1.2.}.+ . . . . . . . . . 3 3 3 3 3 . . . . . . . . . . . . . . . . . . . . . . . . . - / 3 / > $ .           ",
"          . $ > / 1.2.}.+ . . . . . . . . . 3 3 3 3 3 . . . . . . . . . . . . . . . . . . . . . . . . . - / 3 / > $ .           ",
"          . $ > / 1.3.i + . . . . . . . . . 3 3 3 3 3 . . . . . . . . . . . . . . . . . . . . . . . . . - / 3 / > $ .           ",
"          . $ > / 3 4.i . . . . . . . . . . 3 3 3 3 3 . . . . . . . . . . . . . . . . . . . . . . . . . /./ 3 / > $ .           ",
"          . $ > / 3 5.<.. . . . . . . . . . 3 3 3 3 3 . . . . . . . . . . . . . . . . . . . . . . . . . /./ 3 / > $ .           ",
"          . $ > / 3 [.6.. . . . . . . . . . 3 3 3 3 3 . . . . . . . . . . . . . . . . . . . . . . . . . - [.3 / > $ .           ",
"          . $ > / 3 / ..+ . . . . . . . . . 3 3 3 3 3 . . . . . . . . . . . . . . . . . . . . . . . . . 6.[.3 / > $ .           ",
"          . $ > / 3 / i . . . . . . . . . . 3 3 3 3 3 . . . . . . . . . . . . . . . . . . . . + . . . . ..5.3 / > $ .           ",
"          . $ > / 3 / r + . . . . . . . . . 3 3 3 3 3 . . . . . . . . . . . . . . . . . . . + . . . . . +.5.3 / > $ .           ",
"          . $ > / 3 / i . . . . . . . . . . 3 3 3 3 3 . . . . . . . . . . . . . . . . . . . . . . . . . 6.5.3 / > $ .           ",
"          . $ > / 3 / t . . . . . . . . . . 3 3 3 3 3 . . . . . . . . . . . . . . . . . . . . . . . . . 7.[.3 / > $ .           ",
"          . $ > / 3 / ... . . . . . . . . . 3 3 3 3 3 . . . . . . . . . . . . . . . . . . . . . . . . . 8.[.3 / > $ .           ",
"          . $ > / 3 / 9.. . . . . . . . . . 3 3 3 3 3 . . . . . . . . . . . . . . . . . . . . . . . . . . / 3 / > $ .           ",
"          . $ > / 3 / B + . . . . . . . . . 3 3 3 3 3 . . . . . . . . . . . . . . . . . . . . . . . . . . / 3 / > $ .           ",
"          . $ > / 3 / 0.+ . . . . . . . . . 3 3 3 3 3 . . . . . . . . . . . . . . . . . . . . . . . . . /./ 3 / > $ .           ",
"          . $ > / 3 / -.+ . . . . . . . . . 3 3 3 3 3 . . . . . . . . . . . . . . . . . . . . . . . . . %./ 3 / > $ .           ",
"          . $ > / 3 / :.. . . . . . . . . . 3 3 3 3 3 . . . . . . . . . . . . . . . . . . . . . . . . . -./ 3 / > $ .           ",
"          . $ > / 3 / :.. . . . . . . . . . 3 3 3 3 3 a.a.a.a.a.a.a.a.a.a.a.a.a.a.b.. . . . . . . . . . :./ 3 / > $ .           ",
"          . $ > / 3 / <.. . . . . . . . . . 3 3 3 3 3 3 3 3 3 3 3 3 3 3 3 3 3 3 3 b.. . . . . . . . . . i / 3 / > $ .           ",
"          . $ > / 3 / :.+ . . . . . . . . . 3 3 3 3 3 3 3 3 3 3 3 3 3 3 3 3 3 3 3 b.. . . . . . . . . . 9./ 3 / > $ .           ",
"          . $ > / 3 {.> + . . . . . . . . . 3 3 3 3 3 3 3 3 3 3 3 3 3 3 3 3 3 3 3 b.. . . . . . . . . } X {.3 / > $ .           ",
"          . $ > / 3 ).H 5 . . . . . . . . . 3 3 3 3 3 3 3 3 3 3 3 3 3 3 3 3 3 3 3 b.. . . . . . . + + c.d.).3 e.> $ .           ",
"          . $ B |.3 3 f.| } . . . . . . . . . . . . . . . . . . . . . . . . . . . . . . . . . . . + '.| g.3 3 z , % .           ",
"          . & t h.3 3 3 i.&.& + + . . . . . . . . . . . . . . . . . . . . . . . + + } + . . . . + j.-.i.3 3 3 k.7.} .           ",
"          . + 5 l.3 3 3 3 s m.n.-.^.. /.%.-.:.:.:.:.:.:.+.-.}.o.C C <.$.q :.:.i 9.#.> i l /.. ^.p.m.s 3 3 3 3 q.r.. .           ",
"          . . r.s.3 3 3 3 3 3 t./ / / / / / / / / / / / / [.P P P P [./ / / / / / / / / / / / / t.3 3 3 3 3 u.v.k . .           ",
"            . + >.w.3 3 3 3 3 3 3 3 3 3 3 3 3 3 3 3 3 3 3 3 3 3 3 3 3 3 3 3 3 3 3 3 3 3 3 3 3 3 3 3 3 3 3 x.y.= . .             ",
"              . @ z.A.B.C.D./ / / / / / / / / / / / / / / / / / / / / / / / / / / / / / / / / / / / E.F.G.H.= + .               ",
"              . . + j.5 &.}.> > > > > > > > > > > > > > > > > > > > > > > > > > > > > > > > > > > > 9.- j.) . . .               ",
"                  . . + & % $ $ $ $ $ $ $ $ $ $ $ $ $ $ $ $ $ $ $ $ $ $ $ $ $ $ $ $ $ $ $ $ $ $ $ $ # I.+ . .                   ",
"                    . . . . . . . . . . . . . . . . . . . . . . . . . . . . . . . . . . . . . . . . . . . .                     ",
"                                                                                                                                ",
"                                                                                                                                ",
"                                                                                                                                ",
"                                                                                                                                ",
"                                                                                                                                "};
